%YAML 1.1
%TAG !u! tag:unity3d.com,2011:
--- !u!1 &3964793770690060567
GameObject:
  m_ObjectHideFlags: 0
  m_CorrespondingSourceObject: {fileID: 0}
  m_PrefabInstance: {fileID: 0}
  m_PrefabAsset: {fileID: 0}
  serializedVersion: 6
  m_Component:
  - component: {fileID: 3964793770690060565}
  - component: {fileID: 3964793770690060564}
  m_Layer: 0
  m_Name: Upgrade Manager
  m_TagString: Untagged
  m_Icon: {fileID: 0}
  m_NavMeshLayer: 0
  m_StaticEditorFlags: 0
  m_IsActive: 1
--- !u!4 &3964793770690060565
Transform:
  m_ObjectHideFlags: 0
  m_CorrespondingSourceObject: {fileID: 0}
  m_PrefabInstance: {fileID: 0}
  m_PrefabAsset: {fileID: 0}
  m_GameObject: {fileID: 3964793770690060567}
  m_LocalRotation: {x: 0, y: 0, z: 0, w: 1}
  m_LocalPosition: {x: 2.7931955, y: 3.2146597, z: 5.0342817}
  m_LocalScale: {x: 1, y: 1, z: 1}
  m_ConstrainProportionsScale: 0
  m_Children: []
  m_Father: {fileID: 0}
  m_RootOrder: 0
  m_LocalEulerAnglesHint: {x: 0, y: 0, z: 0}
--- !u!114 &3964793770690060564
MonoBehaviour:
  m_ObjectHideFlags: 0
  m_CorrespondingSourceObject: {fileID: 0}
  m_PrefabInstance: {fileID: 0}
  m_PrefabAsset: {fileID: 0}
  m_GameObject: {fileID: 3964793770690060567}
  m_Enabled: 1
  m_EditorHideFlags: 0
  m_Script: {fileID: 11500000, guid: b61169f122486464dbb9cbc303f6479b, type: 3}
  m_Name: 
  m_EditorClassIdentifier: 
  upgradeOptions:
  - {fileID: 11400000, guid: 75fc10a10997f794c8a9a0dbdea5e9c2, type: 2}
  - {fileID: 11400000, guid: 35001d6eb97caa24d8c3a8a0e66bdaba, type: 2}
  - {fileID: 11400000, guid: 51ebbb0237472cb45a3b2f20259fa05f, type: 2}
  - {fileID: 11400000, guid: e0012898df9ef2248a604f968200557d, type: 2}
  selectedOptions: []
  upgradeOptionNames:
  - {fileID: 0}
  - {fileID: 0}
  - {fileID: 0}
  upgradeOptionDesc:
  - {fileID: 0}
  - {fileID: 0}
  - {fileID: 0}
  choosen: 0
